ID, Pontos, Duração, Comprimento (km), Velocidade Média (km/h)
1,903,15:12:56,${0,0975158837963656}$,${1,78026660939765}\times 10^{-6}$
2,1393,23:44:47,${0,233744351432616}$,${2,73426780016395}\times 10^{-6}$
3,684,11:15:56,${1,08010014637749}$,${2,66323144880532}\times 10^{-5}$
4,872,15:00:20,${0,0222225834340853}$,${4,11376961016019}\times 10^{-7}$
5,1439,1 dia 00:23:54,${0,0972387964770483}$,${1,10707466900117}\times 10^{-6}$
6,1408,11:41:53,${0,115283561537739}$,${2,73748157428204}\times 10^{-6}$
7,1372,22:40:43,${0,11648101461965}$,${1,42671159339625}\times 10^{-6}$
8,1423,23:38:59,${0,053439915991259}$,${6,27678455129365}\times 10^{-7}$
